<?xml version="1.0" encoding="utf-8"?>
<!-- Generator: Adobe Illustrator 21.0.0, SVG Export Plug-In . SVG Version: 6.00 Build 0)  -->
<svg version="1.0" id="Layer_1" xmlns="http://www.w3.org/2000/svg" xmlns:xlink="http://www.w3.org/1999/xlink" x="0px" y="0px"
	 viewBox="0 0 40 40" style="enable-background:new 0 0 40 40;" xml:space="preserve">
<g>
	<path d="M21.4,10.6c2.9,0,5.3-2.4,5.3-5.3S24.4,0,21.4,0s-5.3,2.4-5.3,5.3S18.5,10.6,21.4,10.6z M18.2,5.3c0-1.8,1.4-3.2,3.2-3.2
		s3.2,1.4,3.2,3.2s-1.4,3.2-3.2,3.2S18.2,7.1,18.2,5.3z"/>
	<path d="M21.4,12.7c-2.5,0-5,0.6-7.2,1.6c-0.2-0.5-0.6-1-1-1.4c-0.9-0.9-2.1-1.4-3.4-1.4c-0.7,0-1.5,0.2-2.2,0.5
		c-0.2,0.1-0.4,0.3-0.5,0.5c-0.9,1.9-0.6,4.1,0.9,5.6c0.3,0.3,0.5,0.5,0.9,0.7c-0.5,0.7-0.9,1.5-1.2,2.3h-1c-1.4,0-2.5,1.1-2.5,2.5
		v4.1c0,1.4,1.1,2.5,2.5,2.5h1.8c0.8,1.4,2,2.7,3.4,3.7v3.7c0,1.4,1.1,2.5,2.5,2.5h1.8c1.4,0,2.5-1.1,2.5-2.5v-0.9
		c1.7,0.3,3.4,0.3,5.1,0v0.9c0,1.4,1.1,2.5,2.5,2.5h1.8c1.4,0,2.5-1.1,2.5-2.5v-3.7c3.1-2.3,4.9-5.6,4.9-9.1
		C35.7,18.1,29.3,12.7,21.4,12.7z M25.7,34.5c-0.2-0.1-0.4-0.2-0.7-0.2c-0.1,0-0.2,0-0.2,0c-2.2,0.5-4.5,0.5-6.7,0
		c-0.3-0.1-0.6,0-0.9,0.2c-0.3,0.2-0.4,0.5-0.4,0.8v2.2c0,0.2-0.2,0.4-0.4,0.4h-1.8c-0.2,0-0.4-0.2-0.4-0.4v-4.2
		c0-0.4-0.2-0.7-0.5-0.9c-1.5-1-2.7-2.4-3.5-3.8C10,28.2,9.7,28,9.3,28H6.8c-0.2,0-0.4-0.2-0.4-0.4v-4.1c0-0.2,0.2-0.4,0.4-0.4h1.8
		c0.5,0,0.9-0.3,1-0.8c0.4-1.2,1-2.4,1.9-3.4c0.2-0.3,0.3-0.7,0.2-1c-0.1-0.3-0.4-0.6-0.8-0.7c-0.5-0.1-0.9-0.4-1.3-0.7
		c-0.7-0.7-1-1.8-0.6-2.8c1-0.3,2.1-0.1,2.8,0.6c0.4,0.4,0.7,1,0.8,1.6c0,0.4,0.3,0.7,0.6,0.8c0.3,0.2,0.7,0.1,1,0
		c2.1-1.3,4.6-2,7.2-2c6.7,0,12.1,4.4,12.1,9.9c0,3-1.6,5.8-4.4,7.7c-0.3,0.2-0.5,0.5-0.5,0.9v4.2c0,0.2-0.2,0.4-0.4,0.4h-1.8
		c-0.2,0-0.4-0.2-0.4-0.4v-2.2C26.1,35,25.9,34.7,25.7,34.5z"/>
	<circle cx="14" cy="21" r="1.7"/>
	<path d="M23.8,16h-4.6c-0.6,0-1.1,0.5-1.1,1.1c0,0.6,0.5,1.1,1.1,1.1h4.6c0.6,0,1.1-0.5,1.1-1.1C24.8,16.5,24.3,16,23.8,16z"/>
</g>
</svg>
