<?xml version="1.0" encoding="utf-8"?>
<!-- Generator: Adobe Illustrator 21.0.0, SVG Export Plug-In . SVG Version: 6.00 Build 0)  -->
<svg version="1.0" id="Layer_1" xmlns="http://www.w3.org/2000/svg" xmlns:xlink="http://www.w3.org/1999/xlink" x="0px" y="0px"
	 viewBox="0 0 40 40" style="enable-background:new 0 0 40 40;" xml:space="preserve">
<style type="text/css">
	.st0{fill:#020202;}
</style>
<g>
	<path class="st0" d="M34.3,3.7c-0.1-0.2-0.3-0.4-0.5-0.5L27,0.1c-0.2-0.1-0.5-0.1-0.7,0c-0.2,0.1-0.4,0.3-0.5,0.5l-0.6,1.3
		C24.3,3.8,25,6,26.8,7.1l-2,4.3c-0.6,0-1.2,0.1-1.6,0.2c-1-1.6-2-2.3-2.1-2.3C18,7,14.9,9.5,13.7,11.2c-0.8-0.1-1.5-0.1-2.2,0.2
		c-1.8,0.7-2.4,2.7-2.5,3H11c0.2-0.4,0.6-1.1,1.3-1.4c1-0.4,2.4,0.2,3.3,0.8c0.4,0.3,1,0.1,1.3-0.3c0.3-0.4,0.1-1-0.3-1.3
		c-0.3-0.2-0.6-0.4-0.9-0.5c0.8-0.8,2.6-2.4,4.6-1.1c0,0,1.6,1.1,2.5,3.7h1.9c-0.1-0.4-0.3-0.8-0.4-1.2c1.1-0.2,2.9-0.2,4.5,1.2h2.4
		c-1.2-1.7-2.8-2.6-4.2-2.9l1.7-3.7C29,8,29.5,8.1,30,8.1c1.6,0,3-0.9,3.7-2.4l0.6-1.3C34.4,4.2,34.4,3.9,34.3,3.7z M32,5
		c-0.4,0.8-1.1,1.3-2,1.3c-0.3,0-0.6-0.1-0.9-0.2l-1.2-0.5c-1.1-0.5-1.6-1.8-1.1-2.9L27,2.1l5.2,2.4L32,5z"/>
	<path class="st0" d="M31.9,16H8.5c-1.1,0-2,0.9-2,2v1c0,1.1,0.9,2,2,2h0.6l0.1,1.6c-3.6,4.3-4.6,9.3-2.2,11.4
		c0.7,0.6,1.6,0.9,2.6,0.9c0.1,0,0.3,0,0.4,0l0.1,1.8c0.1,1.9,1.8,3.5,3.7,3.5h12.7c1.9,0,3.6-1.6,3.7-3.5L31.3,21h0.6
		c1.1,0,2-0.9,2-2v-1C33.9,16.9,33,16,31.9,16z M28.4,36.4c-0.1,1-0.9,1.8-1.9,1.8H13.8c-1,0-1.8-0.8-1.9-1.8l-0.1-2
		c2.1-0.7,4.3-2.3,6.3-4.5c1-1.1,1.8-2.3,2.4-3.6c0.8-0.1,1.4-0.8,1.4-1.6c0-0.9-0.7-1.7-1.7-1.7c-0.9,0-1.7,0.7-1.7,1.7
		c0,0.3,0.1,0.6,0.3,0.9c-0.6,1.1-1.3,2.1-2.1,3.1c-3.3,3.8-7.2,5.1-8.6,3.9c-1.2-1-0.9-4,1.2-7.2l0.4,5.9c0.6-0.1,1.2-0.2,1.8-0.5
		L10.9,21h18.5L28.4,36.4z M32,19c0,0.1-0.1,0.1-0.1,0.1H8.5c-0.1,0-0.1-0.1-0.1-0.1v-1c0-0.1,0.1-0.1,0.1-0.1h23.4
		c0.1,0,0.1,0.1,0.1,0.1V19z"/>
</g>
</svg>
