<?xml version="1.0" encoding="utf-8"?>
<!-- Generator: Adobe Illustrator 21.0.0, SVG Export Plug-In . SVG Version: 6.00 Build 0)  -->
<svg version="1.0" id="Layer_1" xmlns="http://www.w3.org/2000/svg" xmlns:xlink="http://www.w3.org/1999/xlink" x="0px" y="0px"
	 viewBox="0 0 40 40" style="enable-background:new 0 0 40 40;" xml:space="preserve">
<g>
	<path d="M9.1,29.9c0.1,0.5,0.5,0.8,1,0.8c0.1,0,0.1,0,0.2,0c0.5-0.1,0.9-0.6,0.8-1.2L8.8,18.8l11.2-2.1l11.1,2.1L29,29.3
		c-0.1,0.5,0.2,1.1,0.8,1.2c0.5,0.1,1.1-0.2,1.2-0.8l2.4-11.5c0.1-0.3,0-0.5-0.1-0.7c-0.1-0.2-0.4-0.4-0.6-0.4l-2-0.4V6.3
		c0-0.5-0.4-1-1-1h-5.1V2.3c0-0.5-0.4-1-1-1h-7.1c-0.5,0-1,0.4-1,1v2.9h-5.1c-0.5,0-1,0.4-1,1v10.4l-2,0.4c-0.3,0-0.5,0.2-0.6,0.4
		c-0.1,0.2-0.2,0.5-0.1,0.8L9.1,29.9z M17.5,5.3v-2h5.1v2H17.5z M11.4,16.3v-9h17.2v9l-8.3-1.6c-0.1,0-0.2,0-0.4,0L11.4,16.3z"/>
	<path d="M18.3,8.7h-4.9c-0.5,0-1,0.4-1,1v3.2c0,0.5,0.4,1,1,1h4.9c0.5,0,1-0.4,1-1V9.7C19.3,9.1,18.8,8.7,18.3,8.7z M14.4,11.8
		v-1.2h2.9v1.2H14.4z"/>
	<path d="M21.7,13.8h4.9c0.5,0,1-0.4,1-1V9.7c0-0.5-0.4-1-1-1h-4.9c-0.5,0-1,0.4-1,1v3.2C20.7,13.4,21.2,13.8,21.7,13.8z M22.7,11.8
		v-1.2h2.9v1.2H22.7z"/>
	<path d="M0.5,33.1c1.1,0.7,3.8,1.5,6.3,0c0.8,0.7,1.7,1.1,2.8,1.2c0.2,0,0.4,0,0.7,0c1.3,0,2.6-0.4,3.9-1.3c2,1.4,4.4,1.4,6.6,0
		c0.9,0.7,1.9,1.1,3,1.1c0,0,0,0,0.1,0c1,0,2-0.4,3-1c1.6,1.1,4.1,1.5,6.3-0.1c3.5,1.9,6.4-0.1,6.5-0.2c0.4-0.3,0.5-0.9,0.2-1.4
		c-0.3-0.4-0.9-0.5-1.4-0.2c0,0-2.3,1.6-4.9-0.2c-0.4-0.3-0.9-0.2-1.2,0.1c-1.7,1.6-3.7,1.2-4.8,0c-0.2-0.2-0.4-0.3-0.7-0.3
		c-0.3,0-0.5,0.1-0.7,0.3c-0.7,0.7-1.5,1.1-2.3,1.1c0,0,0,0,0,0c-0.8,0-1.6-0.4-2.2-1.1c-0.3-0.4-0.9-0.4-1.3-0.1
		c-2.4,1.8-4.3,1-5.5,0c-0.4-0.3-0.9-0.3-1.3,0c-1.5,1.3-2.9,1.4-3.7,1.3c-0.9-0.1-1.6-0.5-2.1-1.1C7.5,31,7.3,30.9,7,30.8
		c-0.3,0-0.5,0-0.7,0.2c-2.2,1.8-4.7,0.4-4.8,0.3c-0.5-0.3-1.1-0.1-1.4,0.3C0,31.9,0,32.2,0,32.5C0.1,32.7,0.2,32.9,0.5,33.1z"/>
	<path d="M38.4,34.9c-0.1,0.1-2.3,1.6-4.9-0.2c-0.4-0.3-0.9-0.2-1.2,0.1c-1.7,1.6-3.7,1.2-4.8,0c-0.2-0.2-0.4-0.3-0.7-0.3
		c-0.3,0-0.5,0.1-0.7,0.3c-0.7,0.7-1.5,1.1-2.3,1.1c-0.8,0-1.6-0.4-2.2-1.1c-0.3-0.4-0.9-0.4-1.3-0.1c-2.4,1.8-4.3,1-5.5,0
		c-0.4-0.3-0.9-0.3-1.3,0C12,36,10.7,36.1,9.8,36c-0.9-0.1-1.6-0.5-2.1-1.1c-0.2-0.2-0.4-0.4-0.7-0.4c-0.3,0-0.5,0-0.7,0.2
		C4,36.5,1.6,35.1,1.5,35c-0.5-0.3-1.1-0.1-1.4,0.3c-0.3,0.5-0.1,1.1,0.3,1.4c1.1,0.7,3.8,1.5,6.3,0c0.8,0.7,1.7,1.1,2.8,1.2
		c0.2,0,0.4,0,0.7,0c1.3,0,2.6-0.4,3.9-1.3c2,1.4,4.4,1.4,6.6,0c0.9,0.7,1.9,1.1,3,1.1c1,0,2.1-0.3,3-1c1.6,1.1,4.1,1.5,6.3-0.1
		c3.5,1.9,6.4-0.1,6.5-0.2c0.4-0.3,0.5-0.9,0.2-1.4C39.5,34.7,38.9,34.6,38.4,34.9z"/>
</g>
</svg>
