<?xml version="1.0" encoding="utf-8"?>
<!-- Generator: Adobe Illustrator 21.0.0, SVG Export Plug-In . SVG Version: 6.00 Build 0)  -->
<svg version="1.0" id="Layer_1" xmlns="http://www.w3.org/2000/svg" xmlns:xlink="http://www.w3.org/1999/xlink" x="0px" y="0px"
	 viewBox="0 0 40 40" style="enable-background:new 0 0 40 40;" xml:space="preserve">
<g>
	<path d="M26.4,36h-4.6c0.1-0.2,0.3-0.4,0.4-0.6c0.3-0.4,0.9-0.9,1.8-1.7c0.9-0.7,1.5-1.2,1.9-1.6c0.4-0.3,0.7-0.8,1.1-1.4
		c0.4-0.6,0.5-1.2,0.5-2.1c0-0.5-0.1-0.9-0.3-1.3c-0.2-0.4-0.4-0.8-0.7-1.1s-0.7-0.6-1.1-0.8c-0.6-0.3-1.4-0.4-2.4-0.4
		c-0.7,0-1.4,0.1-1.9,0.3c-0.6,0.2-1,0.5-1.4,0.9c-0.4,0.4-0.6,0.7-0.8,1.2c-0.2,0.4-0.3,0.9-0.3,1.3c0,0.3,0.1,0.6,0.3,0.8
		c0.2,0.2,0.4,0.3,0.7,0.3c0.3,0,0.6-0.1,0.8-0.3c0.2-0.2,0.3-0.5,0.5-0.9c0.1-0.4,0.2-0.6,0.3-0.7c0.4-0.7,1-1,1.8-1
		c0.4,0,0.7,0.1,1,0.2c0.3,0.2,0.5,0.4,0.7,0.7c0.2,0.3,0.3,0.6,0.3,1c0,0.3-0.1,0.7-0.2,1.1c-0.2,0.4-0.4,0.7-0.7,1
		c-0.3,0.3-0.7,0.7-1.2,1c-0.3,0.2-0.7,0.6-1.3,1.1c-0.6,0.6-1.3,1.3-2.2,2.2c-0.2,0.2-0.4,0.5-0.5,0.8c-0.2,0.3-0.2,0.6-0.2,0.8
		c0,0.3,0.1,0.6,0.4,0.9c0.2,0.2,0.6,0.4,1,0.4h6.6c0.4,0,0.7-0.1,0.9-0.3c0.2-0.2,0.3-0.4,0.3-0.7s-0.1-0.6-0.4-0.8
		C27.2,36.1,26.9,36,26.4,36z"/>
	<path d="M37.6,33.6c-0.3-0.1-0.6-0.2-1.1-0.2H36v-7c0-1-0.4-1.5-1.3-1.5c-0.3,0-0.5,0.1-0.7,0.3c-0.2,0.2-0.4,0.5-0.7,0.9l-4.7,6.4
		c-0.1,0.2-0.2,0.3-0.3,0.4c-0.1,0.1-0.2,0.2-0.3,0.4c-0.1,0.1-0.1,0.2-0.2,0.4c0,0.1-0.1,0.2-0.1,0.3c0,0.4,0.1,0.8,0.4,1
		c0.3,0.3,0.7,0.4,1.2,0.4h4.5v1.6c0,0.4,0.1,0.8,0.3,1c0.2,0.2,0.5,0.3,0.8,0.3s0.6-0.1,0.8-0.3c0.2-0.2,0.3-0.6,0.3-1v-1.6h0.5
		c0.4,0,0.8-0.1,1-0.2c0.2-0.2,0.3-0.4,0.3-0.7C38,33.9,37.9,33.7,37.6,33.6z M33.8,33.4H30l3.8-5.2V33.4z"/>
	<path d="M21.3,19.9c0-0.3-0.1-0.6-0.2-0.9l7.8-7.8c0.4-0.4,0.4-1.1,0-1.5c-0.4-0.4-1.1-0.4-1.5,0l-7.6,7.6
		c-0.4-0.2-0.9-0.4-1.4-0.4c-0.8,0-1.5,0.3-2.1,0.8l-5.4-3.2c-0.5-0.3-1.2-0.1-1.5,0.4c-0.4,0.5-0.2,1.2,0.3,1.5l5.5,3.2
		c0,0.1,0,0.2,0,0.2c0,1.6,1.3,3.1,3.1,3.1C20,23,21.3,21.6,21.3,19.9z M18.3,20.7c-0.4,0-0.8-0.4-0.8-0.8c0.1-0.1,0.1-0.1,0.1-0.2
		c0.1-0.1,0.1-0.3,0.1-0.4c0.1-0.1,0.3-0.2,0.5-0.2c0.4,0,0.8,0.4,0.8,0.8C19.2,20.3,18.8,20.7,18.3,20.7z"/>
	<path d="M19.4,8V6.8c0-0.6-0.5-1.1-1.1-1.1s-1.1,0.5-1.1,1.1V8c0,0.6,0.5,1.1,1.1,1.1C18.9,9.1,19.4,8.6,19.4,8z"/>
	<path d="M5.2,18.8c-0.6,0-1.1,0.5-1.1,1.1c0,0.6,0.5,1.1,1.1,1.1h1.2c0.6,0,1.1-0.5,1.1-1.1c0-0.6-0.5-1.1-1.1-1.1H5.2z"/>
	<path d="M39.4,14.4c-0.5-0.3-1.2,0-1.4,0.5l-1.3,2.9c-1-9.1-8.8-16.2-18.3-16.2C8.2,1.5,0,9.8,0,19.9c0,8.3,5.6,15.7,13.8,17.8
		c0.1,0,0.2,0,0.3,0c0.5,0,0.9-0.3,1-0.8c0.2-0.6-0.2-1.2-0.8-1.3C7.2,33.7,2.2,27.2,2.2,19.9C2.2,11,9.4,3.8,18.3,3.8
		c8.2,0,15,6.1,16,13.9l-1.7-2.3c-0.4-0.5-1-0.6-1.5-0.2c-0.5,0.4-0.5,1.1-0.2,1.5l4.3,5.4c0.2,0.3,0.5,0.4,0.8,0.4H36
		c0.4,0,0.7-0.3,0.9-0.6l3-6.3C40.1,15.3,39.9,14.6,39.4,14.4z"/>
</g>
</svg>
