<?xml version="1.0" encoding="utf-8"?>
<!-- Generator: Adobe Illustrator 21.0.0, SVG Export Plug-In . SVG Version: 6.00 Build 0)  -->
<svg version="1.0" id="Layer_1" xmlns="http://www.w3.org/2000/svg" xmlns:xlink="http://www.w3.org/1999/xlink" x="0px" y="0px"
	 viewBox="0 0 40 40" style="enable-background:new 0 0 40 40;" xml:space="preserve">
<style type="text/css">
	.st0{fill:#1D1D1B;}
</style>
<g>
	<path class="st0" d="M11.8,16.8c3.1,0,5.5-3.6,5.5-8.3c0-4.1-2-6.5-5.5-6.5S6.3,4.4,6.3,8.5C6.3,13.1,8.7,16.8,11.8,16.8z
		 M11.8,4.2c2.2,0,3.3,1.4,3.3,4.3c0,3.7-1.7,6.1-3.3,6.1s-3.3-2.5-3.3-6.1C8.5,5.6,9.6,4.2,11.8,4.2z"/>
	<path class="st0" d="M1.2,33.2h7.5c0.6,0,1.1-0.5,1.1-1.1c0-0.6-0.5-1.1-1.1-1.1H7.4c-0.1,0-0.2-0.1-0.2-0.2V27
		c0-0.6-0.5-1.1-1.1-1.1S5.1,26.4,5.1,27v3.8C5.1,30.9,5,31,4.9,31H2.4c-0.1,0-0.2-0.1-0.2-0.2C2.1,28,2.3,23,3.5,21.7
		c0.1-0.1,0.2-0.2,0.3-0.2l0.6,0c1.3,0,2.7-0.2,3.9-2.4c0.1-0.3,0.2-0.6,0.1-0.8c-0.1-0.3-0.3-0.5-0.5-0.6c-0.5-0.3-1.2-0.1-1.5,0.5
		c-0.6,1.1-0.9,1.2-2.2,1.2l-0.4,0c-0.7,0-1.3,0.3-1.9,0.8c-1.8,1.9-2.1,7.6-1.9,11.9C0.1,32.7,0.6,33.2,1.2,33.2z"/>
	<path class="st0" d="M28.2,16.8c3.1,0,5.5-3.6,5.5-8.3c0-4.1-2-6.5-5.5-6.5c-3.5,0-5.5,2.4-5.5,6.5C22.7,13.1,25.1,16.8,28.2,16.8z
		 M28.2,4.2c2.2,0,3.3,1.4,3.3,4.3c0,3.7-1.7,6.1-3.3,6.1s-3.3-2.5-3.3-6.1C24.9,5.6,26,4.2,28.2,4.2z"/>
	<path class="st0" d="M32.1,17.7c-0.3,0.1-0.4,0.4-0.5,0.6c-0.1,0.3-0.1,0.6,0.1,0.8c1.1,2.2,2.6,2.4,3.8,2.4l0.7,0
		c0.1,0,0.2,0,0.3,0.2c1.2,1.3,1.4,6.3,1.3,9.1c0,0.1-0.1,0.2-0.2,0.2h-2.5c-0.1,0-0.2-0.1-0.2-0.2V27c0-0.6-0.5-1.1-1.1-1.1
		c-0.6,0-1.1,0.5-1.1,1.1v3.8c0,0.1-0.1,0.2-0.2,0.2h-1.3c-0.6,0-1.1,0.5-1.1,1.1c0,0.6,0.5,1.1,1.1,1.1h7.5c0.6,0,1.1-0.5,1.1-1
		c0.2-4.3-0.1-10-1.9-11.9c-0.5-0.5-1.2-0.8-1.9-0.8l-0.4,0c-1.3,0-1.6,0-2.2-1.2C33.4,17.7,32.7,17.5,32.1,17.7z"/>
	<path class="st0" d="M20,23.7c2,0,3.6-2.3,3.6-5.2c0-3.9-2.8-4.2-3.6-4.2c-0.8,0-3.6,0.3-3.6,4.2C16.4,21.4,18,23.7,20,23.7z
		 M20,16.5c0.7,0,1.4,0.2,1.4,2c0,1.8-0.9,3-1.4,3c-0.6,0-1.4-1.2-1.4-3C18.6,16.7,19.3,16.5,20,16.5z"/>
	<path class="st0" d="M16.9,26.7c0.2-0.2,0.4-0.4,0.5-0.7c0.1-0.3,0-0.6-0.2-0.8c-0.3-0.5-1-0.6-1.5-0.3c-3.7,2.5-3,7.2-3,7.4
		c0.1,0.5,0.5,0.9,1.1,0.9h12.5c0.5,0,1-0.4,1.1-0.9c0-0.2,0.7-4.9-3-7.4c-0.5-0.3-1.2-0.2-1.5,0.3c-0.2,0.2-0.2,0.5-0.2,0.8
		c0.1,0.3,0.2,0.5,0.5,0.7c1.7,1.1,2,3.1,2.1,4.1c0,0,0,0.1,0,0.1c0,0-0.1,0.1-0.1,0.1H15c0,0-0.1,0-0.1-0.1c0,0,0-0.1,0-0.1
		C14.9,29.7,15.2,27.8,16.9,26.7z"/>
	<path class="st0" d="M38.9,36H1.1C0.5,36,0,36.5,0,37.1s0.5,1.1,1.1,1.1h37.8c0.6,0,1.1-0.5,1.1-1.1S39.5,36,38.9,36z"/>
</g>
</svg>
