<?xml version="1.0" encoding="utf-8"?>
<!-- Generator: Adobe Illustrator 21.0.0, SVG Export Plug-In . SVG Version: 6.00 Build 0)  -->
<svg version="1.0" id="Layer_1" xmlns="http://www.w3.org/2000/svg" xmlns:xlink="http://www.w3.org/1999/xlink" x="0px" y="0px"
	 viewBox="0 0 40 40" style="enable-background:new 0 0 40 40;" xml:space="preserve">
<g>
	<path d="M31.2,38.3c0,0-2.5-2.9-4.7-8.7c0.5-0.1,0.9-0.5,0.9-1c0-0.6-0.5-1-1-1h-0.6C24,22.4,23.1,16.8,23,10.8h0.2
		c0.6,0,1-0.5,1-1c0-0.6-0.5-1-1-1H23V8.4c0-1.1-0.7-2.1-1.7-2.6V1c0-0.6-0.5-1-1-1c-0.6,0-1,0.5-1,1v4.9c-1,0.4-1.7,1.4-1.7,2.6
		v0.3h-0.3c-0.6,0-1,0.5-1,1c0,0.6,0.5,1,1,1h0.2c0,3.3-0.4,6.6-0.9,9.8h-0.3c-0.6,0-1,0.5-1,1c0,0.5,0.4,1,0.9,1
		c-0.7,3.1-1.6,6-2.8,8.6c-2,4.6-4.1,7.1-4.1,7.1c-0.4,0.4-0.3,1.1,0.1,1.5c0.4,0.4,1.1,0.3,1.5-0.1c0.2-0.2,5.1-5.9,7.4-17h2.3
		c0.6,0,1-0.5,1-1c0-0.6-0.5-1-1-1h-1.9c0.5-3.1,0.8-6.4,0.9-9.8h1.4c0.1,6,0.9,11.6,2.6,16.8H18c-0.6,0-1,0.5-1,1c0,0.6,0.5,1,1,1
		h6.2c2.4,6.4,5.1,9.7,5.4,10c0.2,0.2,0.5,0.4,0.8,0.4c0.2,0,0.5-0.1,0.7-0.3c0.2-0.2,0.3-0.4,0.4-0.7
		C31.4,38.8,31.4,38.5,31.2,38.3z M20.9,8.4v0.3h-1.4V8.4c0-0.4,0.3-0.7,0.7-0.7C20.6,7.8,20.9,8.1,20.9,8.4z"/>
	<path d="M20.2,32.6c-3.5,0-6.4,2.9-6.4,6.4c0,0.6,0.5,1,1,1c0.6,0,1-0.5,1-1c0-2.4,1.9-4.3,4.3-4.3s4.3,1.9,4.3,4.3
		c0,0.6,0.5,1,1,1c0.6,0,1-0.5,1-1C26.6,35.4,23.7,32.6,20.2,32.6z"/>
</g>
</svg>
