<?xml version="1.0" encoding="utf-8"?>
<!-- Generator: Adobe Illustrator 21.0.0, SVG Export Plug-In . SVG Version: 6.00 Build 0)  -->
<svg version="1.0" id="Layer_1" xmlns="http://www.w3.org/2000/svg" xmlns:xlink="http://www.w3.org/1999/xlink" x="0px" y="0px"
	 viewBox="0 0 40 40" style="enable-background:new 0 0 40 40;" xml:space="preserve">
<g>
	<path d="M34,18.5H6.8c-3.2,0-6.8,2.6-6.8,6v6.8h40v-6.8C40,21.2,37.3,18.5,34,18.5z M6.8,20.6H34c2.2,0,3.9,1.8,3.9,3.9v4.7H2.1
		v-4.7C2.1,22.3,4.7,20.6,6.8,20.6z"/>
	<path d="M19.4,18.1v-1c0-2-1.5-3.5-3.4-3.5h-4.2c-1.9,0-3.5,1.6-3.5,3.5v1h2.1v-1c0-0.8,0.6-1.4,1.4-1.4h4.2c0.8,0,1.4,0.6,1.4,1.4
		v1H19.4z"/>
	<path d="M30.9,18.1v-1c0-2-1.5-3.5-3.4-3.5h-4.2c-1.9,0-3.5,1.6-3.5,3.5v1h2.1v-1c0-0.8,0.6-1.4,1.4-1.4h4.2c0.8,0,1.4,0.6,1.4,1.4
		v1H30.9z"/>
	<path d="M6.1,34.2H4.5v-2.5H2.5v3.5c0,0.6,0.5,1,1,1h3.3c0.4,0,0.8-0.3,1-0.7l0.9-2.7l-2-0.7L6.1,34.2z"/>
	<path d="M35.5,34.2h-1.5l-0.7-2l-2,0.7l0.9,2.7c0.1,0.4,0.5,0.7,1,0.7h3.3c0.6,0,1-0.5,1-1v-3.5h-2.1V34.2z"/>
	<path d="M6.2,10.5C6.2,9.7,6.8,9,7.6,9h4.1L12,8.4c0.5-1.3,3.6-2.7,7.6-2.7s7,1.4,7.6,2.7L27.4,9h4.1c0.8,0,1.4,0.6,1.4,1.4v7.6
		h2.1v-7.6c0-1.9-1.6-3.5-3.5-3.5h-2.8c-1.4-2-4.9-3.3-9.1-3.3c-4.2,0-7.8,1.3-9.1,3.3H7.6c-1.9,0-3.5,1.6-3.5,3.5v7.6h2.1V10.5z"/>
</g>
</svg>
