<?xml version="1.0" encoding="utf-8"?>
<!-- Generator: Adobe Illustrator 21.0.0, SVG Export Plug-In . SVG Version: 6.00 Build 0)  -->
<svg version="1.0" id="Layer_1" xmlns="http://www.w3.org/2000/svg" xmlns:xlink="http://www.w3.org/1999/xlink" x="0px" y="0px"
	 viewBox="0 0 40 40" style="enable-background:new 0 0 40 40;" xml:space="preserve">
<g>
	<path d="M31.2,18.8c0.1,0,0.1,0,0.2,0c0.5,0,1-0.4,1.1-0.9c0.2-1.4,0.1-2.9-0.3-4.3c-0.5-1.6-1.4-3.1-2.5-4.3
		C28.3,8,26.8,7.2,25.2,7c-1-0.2-2-0.1-3,0.2c-0.6,0.2-0.9,0.8-0.7,1.3c0.1,0.3,0.3,0.5,0.5,0.6c0.3,0.1,0.5,0.2,0.8,0.1
		C23.4,9,24.1,9,24.8,9.1c1.2,0.2,2.3,0.8,3.2,1.7c0.9,0.9,1.6,2.1,2,3.4c0.3,1.1,0.4,2.3,0.2,3.4C30.2,18.1,30.6,18.7,31.2,18.8z"
		/>
	<path d="M38.6,11c-0.8-2.4-2.1-4.6-3.8-6.4c-1.8-1.8-3.9-3.2-6.2-4c-2.7-0.9-5.7-0.9-8.4,0C20,0.8,19.7,1,19.6,1.2
		c-0.1,0.3-0.2,0.5-0.1,0.8c0.1,0.3,0.3,0.5,0.5,0.6c0.3,0.1,0.5,0.1,0.8,0.1C23.2,2,25.7,2,28,2.7c2,0.6,3.8,1.8,5.3,3.4
		c1.5,1.6,2.6,3.5,3.3,5.6c0.9,2.9,0.9,5.9,0,8.8c-0.1,0.3-0.1,0.6,0.1,0.8c0.1,0.3,0.4,0.4,0.6,0.5c0.1,0,0.2,0.1,0.3,0.1
		c0.5,0,0.9-0.3,1-0.7C39.7,17.8,39.7,14.3,38.6,11z"/>
	<path d="M28.8,23c-0.7-0.9-2.1-1.1-3-0.4l-2.8,2.2c-0.7,0.5-1,1.5-0.8,2.3c-0.1,0-0.2,0-0.3,0.1c-1.9,1.1-5.5-0.5-7.9-3.8
		c-2.5-3.2-3.2-7.1-1.6-8.6c0.1-0.1,0.1-0.2,0.2-0.2c0.3,0.2,0.7,0.3,1.1,0.3c0.5,0,0.9-0.2,1.3-0.4l2.8-2.2c0.9-0.7,1.1-2.1,0.4-3
		l-6.3-8.2c-0.7-0.9-2.1-1.1-3-0.4L6,2.7C5.6,3.1,5.3,3.6,5.2,4.1c0,0.1,0,0.2,0,0.2c-0.1,0-0.1,0-0.2,0c-0.4,0-0.7,0.1-2.9,1.9
		C-1.6,9.4,0.9,18.7,8,27.9C13.6,35.3,20.1,40,24.6,40c1.1,0,2-0.3,2.8-0.8c2.2-1.6,2.4-1.8,2.5-2.1c0.1-0.1,0.1-0.2,0.1-0.3
		c0.2,0,0.3,0.1,0.5,0.1c0.5,0,0.9-0.2,1.3-0.4l2.8-2.2c0.9-0.7,1.1-2.1,0.4-3L28.8,23z M33.3,32.5l-2.9,2.2l-6.3-8.2l2.8-2.2
		c0,0,0,0,0,0h0L33.3,32.5z M5.9,6.1l5.3,6.9c-0.1,0-0.2,0.1-0.3,0.2c-2.4,2.4-1.8,7.3,1.4,11.5c2.3,3,5.5,4.9,8.2,4.9
		c0.9,0,1.8-0.2,2.5-0.7c0.1-0.1,0.2-0.1,0.3-0.2l5.2,6.8c-0.2,0.1-0.3,0.2-0.4,0.3c-0.1,0.1-0.4,0.3-2,1.6
		C23,39.7,15,33.5,9.7,26.6C4.4,19.7,0.6,10.4,3.5,8C5,6.8,5.4,6.5,5.4,6.5C5.6,6.4,5.8,6.3,5.9,6.1z M7.3,4.4l2.9-2.2l6.3,8.2
		l-2.9,2.2L7.3,4.4z"/>
</g>
</svg>
