<?xml version="1.0" encoding="utf-8"?>
<!-- Generator: Adobe Illustrator 21.0.0, SVG Export Plug-In . SVG Version: 6.00 Build 0)  -->
<svg version="1.0" id="Layer_1" xmlns="http://www.w3.org/2000/svg" xmlns:xlink="http://www.w3.org/1999/xlink" x="0px" y="0px"
	 viewBox="0 0 40 40" style="enable-background:new 0 0 40 40;" xml:space="preserve">
<g>
	<path d="M20.2,9.1c-3.3,0-5.8,2.6-5.8,5.8c0,1.6,0.6,3.1,1.7,4.2c1.1,1.1,2.6,1.7,4.2,1.7c1.6,0,3.1-0.6,4.1-1.7
		c1.1-1.1,1.7-2.6,1.7-4.2C26.1,11.7,23.5,9.1,20.2,9.1z M22.6,17.3c-0.6,0.6-1.4,0.9-2.4,0.9c-0.9,0-1.7-0.3-2.3-0.9
		c-0.6-0.6-0.9-1.4-0.9-2.3c0-1.9,1.4-3.3,3.3-3.3h0c1.9,0,3.3,1.4,3.3,3.3C23.5,15.9,23.2,16.7,22.6,17.3z"/>
	<path d="M20.2,0c-8.3,0-15,6.3-15,14.1c0,3.1,0.4,5.5,2.6,8.7c1.7,2.6,9.7,13.5,11.3,15.7l1.1,1.5l1.1-1.5
		c1.6-2.2,9.6-13.1,11.3-15.7c2.1-3.2,2.6-5.6,2.6-8.7C35.2,6.3,28.5,0,20.2,0z M30.5,21.4c-1.4,2.2-7.6,10.6-10.3,14.3
		C17.5,32,11.4,23.6,9.9,21.4c-1.8-2.7-2.1-4.6-2.1-7.3c0-6.4,5.6-11.6,12.4-11.6s12.4,5.2,12.4,11.6C32.6,16.8,32.3,18.7,30.5,21.4
		z"/>
</g>
</svg>
