<?xml version="1.0" encoding="utf-8"?>
<!-- Generator: Adobe Illustrator 21.0.0, SVG Export Plug-In . SVG Version: 6.00 Build 0)  -->
<svg version="1.0" id="Layer_1" xmlns="http://www.w3.org/2000/svg" xmlns:xlink="http://www.w3.org/1999/xlink" x="0px" y="0px"
	 viewBox="0 0 40 40" style="enable-background:new 0 0 40 40;" xml:space="preserve">
<path d="M39.8,19.2l-6.6-8.3c-0.4-0.5-1.1-0.5-1.5,0l-6.6,8.3c-0.2,0.3-0.3,0.7-0.1,1c0.2,0.3,0.5,0.5,0.9,0.5h2.3
	c-0.1,2.9-0.7,5.5-1.5,7.7c-1.8-0.7-3.7-1.2-5.7-1.3v-6.4h3.2v-1.9H21v-6.4c1.8-0.1,3.6-0.5,5.2-1.1c0.3,0.9,0.5,1.8,0.7,2.8
	l1.9-0.3c-0.2-1.2-0.5-2.2-0.8-3.2c1.1-0.6,2.1-1.2,2.9-2c0.3,0.3,0.6,0.6,0.9,0.9l1.4-1.3C29.8,4.4,25,2.2,20,2.2v0c0,0,0,0,0,0
	c-9.8,0-17,6.9-17.5,16.6H1c-0.4,0-0.7,0.2-0.9,0.5c-0.2,0.3-0.1,0.7,0.1,1l6.6,8.3C7,28.8,7.3,29,7.6,29s0.6-0.1,0.7-0.4l6.6-8.3
	c0.2-0.3,0.3-0.7,0.1-1c-0.2-0.3-0.5-0.5-0.9-0.5h-2.3c0.1-2.9,0.7-5.5,1.5-7.7c1.8,0.7,3.7,1.2,5.7,1.3v6.4h-3.2v1.9H19v6.4
	c-1.8,0.1-3.6,0.5-5.2,1.1c-0.3-0.9-0.5-1.8-0.7-2.8l-1.9,0.3c0.2,1.2,0.5,2.2,0.8,3.2c-1.1,0.6-2.1,1.2-2.9,2
	c-0.3-0.3-0.6-0.6-0.9-0.9l-1.4,1.3c3.3,3.8,8.1,5.9,13.1,5.9v-1h0v1c0,0,0,0,0,0c9.8,0,17-6.9,17.5-16.6H39c0.4,0,0.7-0.2,0.9-0.5
	C40.1,19.8,40,19.4,39.8,19.2z M29.4,7.3c-0.7,0.5-1.4,1-2.2,1.5C26.6,7.3,25.9,6,25,5C26.6,5.5,28.1,6.3,29.4,7.3z M21,4.3
	c1.7,0.5,3.4,2.4,4.5,5.2c-1.4,0.5-2.9,0.8-4.5,0.9V4.3z M10.6,32.2c0.7-0.5,1.4-1,2.2-1.5c0.6,1.5,1.4,2.7,2.2,3.8
	C13.4,34,11.9,33.2,10.6,32.2z M19,35.2c-1.7-0.5-3.4-2.4-4.5-5.2c1.4-0.5,2.9-0.8,4.5-0.9V35.2z M9.9,19.7c0,0.5,0.4,1,1,1h1.3
	l-4.6,5.8l-4.6-5.8h0.5c0.5,0,1-0.4,1-1c0-7.2,4.2-12.8,10.4-14.8C11.9,8.1,9.9,13.7,9.9,19.7z M19,10.5c-1.7-0.1-3.4-0.5-4.9-1.1
	c1.4-2.7,3.2-4.6,4.9-5.1V10.5z M21,35.2V29c1.7,0.1,3.4,0.5,4.9,1.1C24.5,32.9,22.7,34.7,21,35.2z M36.6,18.8c-0.5,0-1,0.4-1,1
	c0,7.2-4.2,12.8-10.4,14.8c2.9-3.2,4.9-8.7,4.9-14.8c0-0.5-0.4-1-1-1h-1.3l4.6-5.8l4.6,5.8H36.6z"/>
</svg>
