<?xml version="1.0" encoding="utf-8"?>
<!-- Generator: Adobe Illustrator 21.0.0, SVG Export Plug-In . SVG Version: 6.00 Build 0)  -->
<svg version="1.0" id="Layer_1" xmlns="http://www.w3.org/2000/svg" xmlns:xlink="http://www.w3.org/1999/xlink" x="0px" y="0px"
	 viewBox="0 0 40 40" style="enable-background:new 0 0 40 40;" xml:space="preserve">
<g>
	<path d="M20,0C9,0,0,9,0,20s9,20,20,20s20-9,20-20S31,0,20,0z M20,37.6c-9.7,0-17.6-7.9-17.6-17.6S10.3,2.4,20,2.4
		S37.6,10.3,37.6,20S29.7,37.6,20,37.6z"/>
	<path d="M20,22.9c-4.1,0-8,2-10.4,5.4c-0.4,0.5-0.2,1.3,0.3,1.7c0.5,0.4,1.3,0.2,1.7-0.3c1.9-2.8,5.1-4.4,8.4-4.4s6.5,1.6,8.4,4.4
		c0.2,0.3,0.6,0.5,1,0.5c0.2,0,0.5-0.1,0.7-0.2c0.5-0.4,0.7-1.1,0.3-1.7C28,24.9,24.1,22.9,20,22.9z"/>
	<circle cx="26.5" cy="16.7" r="2"/>
	<circle cx="13.5" cy="16.7" r="2"/>
</g>
</svg>
