<?xml version="1.0" encoding="utf-8"?>
<!-- Generator: Adobe Illustrator 21.0.0, SVG Export Plug-In . SVG Version: 6.00 Build 0)  -->
<svg version="1.0" id="Layer_1" xmlns="http://www.w3.org/2000/svg" xmlns:xlink="http://www.w3.org/1999/xlink" x="0px" y="0px"
	 viewBox="0 0 40 40" style="enable-background:new 0 0 40 40;" xml:space="preserve">
<g>
	<path d="M21.1,33.1c-0.3,1-0.9,1.8-1.7,2.7c-8.2-1.2-14.2-7.4-17.2-18c2.5-2,5.8-3.8,9.3-4.9l0.1,0L11,11l-0.1,0
		c-4,1.3-7.7,3.3-10.4,5.7L0,17.1l0.2,0.6c3.3,12,10,18.9,19.5,20.1l0.5,0.1l0.3-0.3c1.2-1.2,2-2.4,2.5-3.8l0-0.1L21.1,33L21.1,33.1
		z"/>
	<path d="M8.5,24.8l-1.6,0.5l0,0.1c0.3,0.9,1.2,1.4,2.5,1.4c0.6,0,1.2-0.1,1.8-0.3c1.5-0.5,2.8-1.7,2.9-2.7l0-0.1l-1.9-0.2l0,0.1
		c-0.1,0.1-0.6,0.8-1.6,1.1c-1,0.3-1.8,0.2-1.9,0.1"/>
	<path d="M39.9,5.6l0-0.6l-0.6-0.2c-3.9-1.6-8.7-2.6-13-2.6c-4.3,0-9,1-13,2.6L12.8,5l0,0.6c-1,15.4,2.9,23.7,13.1,28.7l0.4,0.2
		l0.4-0.2C37,29.3,40.8,21,39.9,5.6z M26.3,32.3c-6.6-3.3-12.6-8.7-11.7-26c3.6-1.4,7.8-2.2,11.7-2.2c3.8,0,8.1,0.8,11.7,2.2
		C38.5,16.6,37.5,26.8,26.3,32.3z"/>
	<path d="M20.1,21.4l-0.4,0.5c-0.5,0.5-0.2,1.2-0.1,1.4c0.6,1.4,3.3,5.2,6.7,5.2c3.4,0,6.1-3.8,6.7-5.2c0.1-0.2,0.4-0.9-0.1-1.4
		l-0.5-0.5l-0.6,0.2c-1.2,0.5-3.2,0.7-5.5,0.8c-2.4-0.1-4.3-0.3-5.6-0.8L20.1,21.4z M22.2,24c1.2,0.2,2.5,0.3,4.1,0.3
		c1.5,0,2.9-0.2,4-0.3c-0.7,0.9-2.3,2.6-4.1,2.6C24.5,26.6,22.9,24.8,22.2,24z"/>
	<path d="M28.9,16.6c0-0.7,0.9-1.6,2.4-1.6c1.8,0,3.2,1.3,3.2,1.6l0,0.1h1.9v-0.1c0-1.7-2.7-3.5-5.2-3.5c-2.7,0-4.3,1.8-4.3,3.5v0.1
		h1.9V16.6z"/>
	<path d="M23.6,16.6v0.1h1.9v-0.1c0-1.7-1.6-3.5-4.3-3.5c-2.5,0-5.2,1.8-5.2,3.5v0.1l1.9,0l0-0.1c0-0.3,1.5-1.6,3.2-1.6
		C22.7,15.1,23.6,15.9,23.6,16.6z"/>
</g>
</svg>
