<?xml version="1.0" encoding="utf-8"?>
<!-- Generator: Adobe Illustrator 21.0.0, SVG Export Plug-In . SVG Version: 6.00 Build 0)  -->
<svg version="1.0" id="Layer_1" xmlns="http://www.w3.org/2000/svg" xmlns:xlink="http://www.w3.org/1999/xlink" x="0px" y="0px"
	 viewBox="0 0 40 40" style="enable-background:new 0 0 40 40;" xml:space="preserve">
<path d="M12.6,36.4c15.1,0,23.3-12.5,23.3-23.3c0-0.4,0-0.7,0-1.1c1.6-1.2,3-2.6,4.1-4.2c-1.5,0.7-3.1,1.1-4.7,1.3
	c1.7-1,3-2.6,3.6-4.5c-1.6,0.9-3.3,1.6-5.2,2c-1.5-1.6-3.6-2.6-6-2.6c-4.5,0-8.2,3.7-8.2,8.2c0,0.6,0.1,1.3,0.2,1.9
	c-6.8-0.3-12.9-3.6-16.9-8.6C2.1,6.6,1.7,8,1.7,9.5c0,2.8,1.4,5.4,3.7,6.8c-1.3,0-2.6-0.4-3.7-1c0,0,0,0.1,0,0.1c0,4,2.8,7.3,6.6,8
	c-0.7,0.2-1.4,0.3-2.2,0.3c-0.5,0-1-0.1-1.5-0.1c1,3.3,4.1,5.6,7.7,5.7C9.3,31.5,5.8,32.8,2,32.8c-0.7,0-1.3,0-2-0.1
	C3.6,35,7.9,36.4,12.6,36.4"/>
</svg>
