<?xml version="1.0" encoding="utf-8"?>
<!-- Generator: Adobe Illustrator 21.0.0, SVG Export Plug-In . SVG Version: 6.00 Build 0)  -->
<svg version="1.0" id="Layer_1" xmlns="http://www.w3.org/2000/svg" xmlns:xlink="http://www.w3.org/1999/xlink" x="0px" y="0px"
	 viewBox="0 0 40 40" style="enable-background:new 0 0 40 40;" xml:space="preserve">
<path d="M39.1,27.5h-2v-6.4c0-0.5-0.4-0.9-0.9-0.9h-1.7v-2.1c0-0.5-0.4-0.9-0.9-0.9h-3c-0.5,0-0.9,0.4-0.9,0.9v8.1H29v-3.9
	c0-0.5-0.4-0.9-0.9-0.9h-2.1V18c0-0.4-0.3-0.8-0.6-0.9L22,16c0,0-0.1,0-0.1,0c1.1-0.7,1.8-1.8,1.8-3.2c0-0.8-0.3-1.6-0.7-2.2L24.9,8
	c0.2-0.3,0.2-0.7,0-1c-0.2-0.3-0.6-0.5-0.9-0.4l-2,0.3l-1.1-3.1C20.8,3.3,20.4,3,20,3c-0.4,0-0.8,0.3-0.9,0.6L18,6.8l-2-0.3
	c-0.4,0-0.7,0.1-0.9,0.4c-0.2,0.3-0.2,0.7,0,1l1.9,2.7c-0.5,0.6-0.7,1.4-0.7,2.2c0,1.4,0.7,2.5,1.8,3.2c0,0-0.1,0-0.1,0l-3.2,1.1
	c-0.4,0.1-0.6,0.5-0.6,0.9v3.3h-2.7v-1.4c0-0.5-0.4-0.9-0.9-0.9H8.7v-2.6c0-0.5-0.4-0.9-0.9-0.9H4.9c-0.5,0-0.9,0.4-0.9,0.9v11.9h-3
	c-0.5,0-0.9,0.4-0.9,0.9c0,0.5,0.4,0.9,0.9,0.9h4c0.5,0,0.9-0.4,0.9-0.9V17.3h1v2.6c0,0.5,0.4,0.9,0.9,0.9h1.7v1.4
	c0,0.5,0.4,0.9,0.9,0.9h3.6V32h-1.3c-0.5,0-0.9,0.4-0.9,0.9v3c0,0.5,0.4,0.9,0.9,0.9h14.4c0.5,0,0.9-0.4,0.9-0.9v-3
	c0-0.5-0.4-0.9-0.9-0.9h-1.3l0-8.8h1.2v3.9c0,0.5,0.4,0.9,0.9,0.9h2.3c0.5,0,0.9-0.4,0.9-0.9V19h1.2v2.1c0,0.5,0.4,0.9,0.9,0.9h1.8
	v6.4c0,0.5,0.4,0.9,0.9,0.9h3c0.5,0,0.9-0.4,0.9-0.9C40,28,39.6,27.5,39.1,27.5z M13.7,35v-1.1h12.6V35H13.7z M24,32h-8V18.7
	l1.8-0.6l1.4,2.5c0.3,0.6,1.3,0.6,1.7,0l1.4-2.5l1.8,0.6L24,32z M20.9,16.5L20,18.2l-0.9-1.7c0,0,0,0,0-0.1
	C19.7,16.6,20.3,16.6,20.9,16.5C20.9,16.5,20.9,16.5,20.9,16.5z M21.5,9.4c-1-0.4-2.1-0.4-3.1,0l-0.6-0.8l0.6,0.1
	c0.4,0.1,0.9-0.2,1-0.6L20,6.8l0.5,1.3c0.1,0.4,0.6,0.7,1,0.6l0.6-0.1L21.5,9.4z M20,11c1,0,1.9,0.8,1.9,1.9c0,1-0.8,1.8-1.9,1.8
	c-1,0-1.9-0.8-1.9-1.8C18.1,11.8,19,11,20,11z"/>
</svg>
